id;employeement_at;total_experience;person_id
1;2020-07-05;74654;1
2;2020-07-05;62230;2
3;2020-07-05;80983;3
4;2020-07-05;75660;4
5;2020-07-05;40170;5
6;2020-07-04;28076;6
7;2020-07-05;36201;7
8;2020-07-05;25834;8
9;2020-07-04;45464;9
10;2020-07-05;64912;10
