id;date_time
1;2020-07-04T18:25:31
2;2020-07-04T23:19:23
3;2020-07-04T18:31:44
4;2020-07-04T23:49:47
5;2020-07-05T12:03:34
6;2020-07-05T09:58:29
7;2020-07-04T19:23:34
8;2020-07-04T18:00:37
9;2020-07-05T10:52:19
10;2020-07-05T06:15:19
