{
  "name": "Person",
  "fields": [
    {
      "fieldName": "surname",
      "fieldType": "String",
      "javadoc": "Фамилия",
      "fieldValidateRules": ["required"]
    },
    {
      "fieldName": "name",
      "fieldType": "String",
      "javadoc": "Имя",
      "fieldValidateRules": ["required"]
    },
    {
      "fieldName": "patronymic",
      "fieldType": "String",
      "javadoc": "Отчество"
    },
    {
      "fieldName": "dateOfBirth",
      "fieldType": "LocalDate",
      "javadoc": "Дата рождения",
      "fieldValidateRules": ["required"]
    },
    {
      "fieldName": "email",
      "fieldType": "String",
      "javadoc": "Контактная почта"
    },
    {
      "fieldName": "phoneNumber",
      "fieldType": "String",
      "javadoc": "Контактный номер телефона"
    }
  ],
  "relationships": [
    {
      "relationshipType": "one-to-one",
      "otherEntityName": "user",
      "otherEntityRelationshipName": "person",
      "relationshipName": "user",
      "otherEntityField": "id",
      "ownerSide": true
    }
  ],
  "changelogDate": "20200705161434",
  "javadoc": "Персона",
  "entityTableName": "person",
  "dto": "mapstruct",
  "pagination": "infinite-scroll",
  "service": "serviceImpl",
  "jpaMetamodelFiltering": false,
  "fluentMethods": true,
  "readOnly": false,
  "embedded": false,
  "clientRootFolder": "",
  "applications": "*"
}
